Advanced Data Visualisation with R
…
1. from the **`data` argument of the layer** where
   * `data` is a `data.frame` or 
   * `data` is a function applied to the global data that returns a `data.frame`
2. by inheriting the **global data specified in `ggplot()`**  

.scroll-sign.f5[
.overflow-scroll.h4[

```
## [[1]]
## # A tibble: 71 × 2
##    weight feed     
##     <dbl> <fct>    
##  1    179 horsebean
##  2    160 horsebean
##  3    136 horsebean
##  4    227 horsebean
##  5    217 horsebean
##  6    168 horsebean
##  7    108 horsebean
##  8    124 horsebean
##  9    143 horsebean
## 10    140 horsebean
## # … with 61 more rows
## 
## [[2]]
## # A tibble: 71 × 2
##    weight feed     
##     <dbl> <fct>    
##  1    179 horsebean
##  2    160 horsebean
##  3    136 horsebean
##  4    227 horsebean
##  5    217 horsebean
##  6    168 horsebean
##  7    108 horsebean
##  8    124 horsebean
##  9    143 horsebean
## 10    140 horsebean
## # … with 61 more rows
```
…
</details>

.scroll-sign.f5[
.overflow-scroll.h5[

```
## [[1]]
## # A tibble: 71 × 3
##    weight feed      PANEL
##     <dbl> <fct>     <fct>
##  1    179 horsebean 1    
##  2    160 horsebean 1    
##  3    136 horsebean 1    
##  4    227 horsebean 1    
##  5    217 horsebean 1    
##  6    168 horsebean 1    
##  7    108 horsebean 1    
##  8    124 horsebean 1    
##  9    143 horsebean 1    
## 10    140 horsebean 1    
## # … with 61 more rows
## 
## [[2]]
## # A tibble: 71 × 3
##    weight feed      PANEL
##     <dbl> <fct>     <fct>
##  1    179 horsebean 1    
##  2    160 horsebean 1    
##  3    136 horsebean 1    
##  4    227 horsebean 1    
##  5    217 horsebean 1    
##  6    168 horsebean 1    
##  7    108 horsebean 1    
##  8    124 horsebean 1    
##  9    143 horsebean 1    
## 10    140 horsebean 1    
## # … with 61 more rows
```
…
</details>

.scroll-sign.f5[
.overflow-scroll.h5[

```
## [[1]]
## # A tibble: 71 × 5
##    colour        x y         PANEL group
##    <fct>     <dbl> <fct>     <fct> <int>
##  1 horsebean   179 horsebean 1         2
##  2 horsebean   160 horsebean 1         2
##  3 horsebean   136 horsebean 1         2
##  4 horsebean   227 horsebean 1         2
##  5 horsebean   217 horsebean 1         2
##  6 horsebean   168 horsebean 1         2
##  7 horsebean   108 horsebean 1         2
##  8 horsebean   124 horsebean 1         2
##  9 horsebean   143 horsebean 1         2
## 10 horsebean   140 horsebean 1         2
## # … with 61 more rows
## 
## [[2]]
## # A tibble: 71 × 4
##        x y         PANEL group
##    <dbl> <fct>     <fct> <int>
##  1   179 horsebean 1         2
##  2   160 horsebean 1         2
##  3   136 horsebean 1         2
##  4   227 horsebean 1         2
##  5   217 horsebean 1         2
##  6   168 horsebean 1         2
##  7   108 horsebean 1         2
##  8   124 horsebean 1         2
##  9   143 horsebean 1         2
## 10   140 horsebean 1         2
## # … with 61 more rows
```
…
</details>

.scroll-sign.f5[
.overflow-scroll.h5[

```
## [[1]]
## # A tibble: 71 × 5
##        x colour    y         PANEL group
##    <dbl> <fct>     <fct>     <fct> <int>
##  1  2.25 horsebean horsebean 1         2
##  2  2.20 horsebean horsebean 1         2
##  3  2.13 horsebean horsebean 1         2
##  4  2.36 horsebean horsebean 1         2
##  5  2.34 horsebean horsebean 1         2
##  6  2.23 horsebean horsebean 1         2
##  7  2.03 horsebean horsebean 1         2
##  8  2.09 horsebean horsebean 1         2
##  9  2.16 horsebean horsebean 1         2
## 10  2.15 horsebean horsebean 1         2
## # … with 61 more rows
## 
## [[2]]
## # A tibble: 71 × 4
##        x y         PANEL group
##    <dbl> <fct>     <fct> <int>
##  1  2.25 horsebean 1         2
##  2  2.20 horsebean 1         2
##  3  2.13 horsebean 1         2
##  4  2.36 horsebean 1         2
##  5  2.34 horsebean 1         2
##  6  2.23 horsebean 1         2
##  7  2.03 horsebean 1         2
##  8  2.09 horsebean 1         2
##  9  2.16 horsebean 1         2
## 10  2.15 horsebean 1         2
## # … with 61 more rows
```
…
</details>

.scroll-sign.f5[
.overflow-scroll.h5[

```
## [[1]]
## # A tibble: 71 × 5
##        x colour    y          PANEL group
##    <dbl> <fct>     <mppd_dsc> <fct> <int>
##  1  2.25 horsebean 2          1         2
##  2  2.20 horsebean 2          1         2
##  3  2.13 horsebean 2          1         2
##  4  2.36 horsebean 2          1         2
##  5  2.34 horsebean 2          1         2
##  6  2.23 horsebean 2          1         2
##  7  2.03 horsebean 2          1         2
##  8  2.09 horsebean 2          1         2
##  9  2.16 horsebean 2          1         2
## 10  2.15 horsebean 2          1         2
## # … with 61 more rows
## 
## [[2]]
## # A tibble: 71 × 4
##        x y          PANEL group
##    <dbl> <mppd_dsc> <fct> <int>
##  1  2.25 2          1         2
##  2  2.20 2          1         2
##  3  2.13 2          1         2
##  4  2.36 2          1         2
##  5  2.34 2          1         2
##  6  2.23 2          1         2
##  7  2.03 2          1         2
##  8  2.09 2          1         2
##  9  2.16 2          1         2
## 10  2.15 2          1         2
## # … with 61 more rows
```
…
</details>

.scroll-sign.f5[
.overflow-scroll.h5[

```
## [[1]]
## # A tibble: 3,072 × 12
##        y density scaled ndensity count     n     x colour PANEL group
##    <dbl>   <dbl>  <dbl>    <dbl> <dbl> <int> <dbl> <fct>  <fct> <int>
##  1     1    1.52  0.345    0.345  18.3    12  2.33 casein 1         1
##  2     1    1.53  0.346    0.346  18.3    12  2.33 casein 1         1
##  3     1    1.53  0.347    0.347  18.4    12  2.34 casein 1         1
##  4     1    1.54  0.348    0.348  18.5    12  2.34 casein 1         1
##  5     1    1.54  0.350    0.350  18.5    12  2.34 casein 1         1
##  6     1    1.55  0.351    0.351  18.6    12  2.34 casein 1         1
##  7     1    1.55  0.352    0.352  18.7    12  2.34 casein 1         1
##  8     1    1.56  0.353    0.353  18.7    12  2.34 casein 1         1
##  9     1    1.57  0.355    0.355  18.8    12  2.34 casein 1         1
## 10     1    1.57  0.356    0.356  18.8    12  2.34 casein 1         1
## # … with 3,062 more rows, and 2 more variables: violinwidth <dbl>,
## #   flipped_aes <lgl>
## 
## [[2]]
…
</details>

.scroll-sign.f5[
.overflow-scroll.h5[

```
## [[1]]
## # A tibble: 3,072 × 15
##        y density scaled ndensity count     n     x colour PANEL group
##    <dbl>   <dbl>  <dbl>    <dbl> <dbl> <int> <dbl> <fct>  <fct> <int>
##  1     1    1.52  0.345    0.345  18.3    12  2.33 casein 1         1
##  2     1    1.53  0.346    0.346  18.3    12  2.33 casein 1         1
##  3     1    1.53  0.347    0.347  18.4    12  2.34 casein 1         1
##  4     1    1.54  0.348    0.348  18.5    12  2.34 casein 1         1
##  5     1    1.54  0.350    0.350  18.5    12  2.34 casein 1         1
##  6     1    1.55  0.351    0.351  18.6    12  2.34 casein 1         1
##  7     1    1.55  0.352    0.352  18.7    12  2.34 casein 1         1
##  8     1    1.56  0.353    0.353  18.7    12  2.34 casein 1         1
##  9     1    1.57  0.355    0.355  18.8    12  2.34 casein 1         1
## 10     1    1.57  0.356    0.356  18.8    12  2.34 casein 1         1
## # … with 3,062 more rows, and 5 more variables: violinwidth <dbl>,
## #   flipped_aes <lgl>, width <dbl>, ymin <dbl>, ymax <dbl>
## 
## [[2]]
…
</details>

.scroll-sign.f5[
.overflow-scroll.h5[

```
## [[1]]
## # A tibble: 3,072 × 16
##        y density scaled ndensity count     n     x colour PANEL group
##    <dbl>   <dbl>  <dbl>    <dbl> <dbl> <int> <dbl> <fct>  <fct> <int>
##  1     1    1.52  0.345    0.345  18.3    12  2.33 casein 1         1
##  2     1    1.53  0.346    0.346  18.3    12  2.33 casein 1         1
##  3     1    1.53  0.347    0.347  18.4    12  2.34 casein 1         1
##  4     1    1.54  0.348    0.348  18.5    12  2.34 casein 1         1
##  5     1    1.54  0.350    0.350  18.5    12  2.34 casein 1         1
##  6     1    1.55  0.351    0.351  18.6    12  2.34 casein 1         1
##  7     1    1.55  0.352    0.352  18.7    12  2.34 casein 1         1
##  8     1    1.56  0.353    0.353  18.7    12  2.34 casein 1         1
##  9     1    1.57  0.355    0.355  18.8    12  2.34 casein 1         1
## 10     1    1.57  0.356    0.356  18.8    12  2.34 casein 1         1
## # … with 3,062 more rows, and 6 more variables: violinwidth <dbl>,
## #   flipped_aes <lgl>, width <dbl>, ymin <dbl>, ymax <dbl>, xmax <dbl>
## 
## [[2]]
…
</details>

.scroll-sign.f5[
.overflow-scroll.h5[

```
## [[1]]
## # A tibble: 3,072 × 16
##    y          density scaled ndensity count     n     x colour PANEL group
##    <mppd_dsc>   <dbl>  <dbl>    <dbl> <dbl> <int> <dbl> <fct>  <fct> <int>
##  1 1             1.52  0.345    0.345  18.3    12  2.33 casein 1         1
##  2 1             1.53  0.346    0.346  18.3    12  2.33 casein 1         1
##  3 1             1.53  0.347    0.347  18.4    12  2.34 casein 1         1
##  4 1             1.54  0.348    0.348  18.5    12  2.34 casein 1         1
##  5 1             1.54  0.350    0.350  18.5    12  2.34 casein 1         1
##  6 1             1.55  0.351    0.351  18.6    12  2.34 casein 1         1
##  7 1             1.55  0.352    0.352  18.7    12  2.34 casein 1         1
##  8 1             1.56  0.353    0.353  18.7    12  2.34 casein 1         1
##  9 1             1.57  0.355    0.355  18.8    12  2.34 casein 1         1
## 10 1             1.57  0.356    0.356  18.8    12  2.34 casein 1         1
## # … with 3,062 more rows, and 6 more variables: violinwidth <dbl>,
## #   flipped_aes <lgl>, width <dbl>, ymin <mppd_dsc>, ymax <mppd_dsc>,
## #   xmax <dbl>
## 
## [[2]]
…
</details>

.scroll-sign.f5[
.overflow-scroll.h5[

```
## [[1]]
## # A tibble: 3,072 × 21
##    colour  y          density scaled ndensity count     n     x PANEL group
##    <chr>   <mppd_dsc>   <dbl>  <dbl>    <dbl> <dbl> <int> <dbl> <fct> <int>
##  1 #F8766D 1             1.52  0.345    0.345  18.3    12  2.33 1         1
##  2 #F8766D 1             1.53  0.346    0.346  18.3    12  2.33 1         1
##  3 #F8766D 1             1.53  0.347    0.347  18.4    12  2.34 1         1
##  4 #F8766D 1             1.54  0.348    0.348  18.5    12  2.34 1         1
##  5 #F8766D 1             1.54  0.350    0.350  18.5    12  2.34 1         1
##  6 #F8766D 1             1.55  0.351    0.351  18.6    12  2.34 1         1
##  7 #F8766D 1             1.55  0.352    0.352  18.7    12  2.34 1         1
##  8 #F8766D 1             1.56  0.353    0.353  18.7    12  2.34 1         1
##  9 #F8766D 1             1.57  0.355    0.355  18.8    12  2.34 1         1
## 10 #F8766D 1             1.57  0.356    0.356  18.8    12  2.34 1         1
## # … with 3,062 more rows, and 11 more variables: violinwidth <dbl>,
## #   flipped_aes <lgl>, width <dbl>, ymin <mppd_dsc>, ymax <mppd_dsc>,
## #   xmax <dbl>, weight <dbl>, fill <chr>, size <dbl>, alpha <lgl>,
## #   linetype <chr>
## 
## [[2]]
…
.overflow-scroll.h5[

```
## ✓ No differences
```
]

</details>

.scroll-sign.f5[
.overflow-scroll.h5[

```
## [[1]]
## # A tibble: 3,072 × 21
##    colour  y          density scaled ndensity count     n     x PANEL group
##    <chr>   <mppd_dsc>   <dbl>  <dbl>    <dbl> <dbl> <int> <dbl> <fct> <int>
##  1 #F8766D 1             1.52  0.345    0.345  18.3    12  2.33 1         1
##  2 #F8766D 1             1.53  0.346    0.346  18.3    12  2.33 1         1
##  3 #F8766D 1             1.53  0.347    0.347  18.4    12  2.34 1         1
##  4 #F8766D 1             1.54  0.348    0.348  18.5    12  2.34 1         1
##  5 #F8766D 1             1.54  0.350    0.350  18.5    12  2.34 1         1
##  6 #F8766D 1             1.55  0.351    0.351  18.6    12  2.34 1         1
##  7 #F8766D 1             1.55  0.352    0.352  18.7    12  2.34 1         1
##  8 #F8766D 1             1.56  0.353    0.353  18.7    12  2.34 1         1
##  9 #F8766D 1             1.57  0.355    0.355  18.8    12  2.34 1         1
## 10 #F8766D 1             1.57  0.356    0.356  18.8    12  2.34 1         1
## # … with 3,062 more rows, and 11 more variables: violinwidth <dbl>,
## #   flipped_aes <lgl>, width <dbl>, ymin <mppd_dsc>, ymax <mppd_dsc>,
## #   xmax <dbl>, weight <dbl>, fill <chr>, size <dbl>, alpha <lgl>,
## #   linetype <chr>
## 
## [[2]]
…
.overflow-scroll.h5[

```
## ✓ No differences
```
]

</details>

.scroll-sign.f5[
.overflow-scroll.h5[

```
## [[1]]
## # A tibble: 3,072 × 21
##    colour  y          density scaled ndensity count     n     x PANEL group
##    <chr>   <mppd_dsc>   <dbl>  <dbl>    <dbl> <dbl> <int> <dbl> <fct> <int>
##  1 #F8766D 1             1.52  0.345    0.345  18.3    12  2.33 1         1
##  2 #F8766D 1             1.53  0.346    0.346  18.3    12  2.33 1         1
##  3 #F8766D 1             1.53  0.347    0.347  18.4    12  2.34 1         1
##  4 #F8766D 1             1.54  0.348    0.348  18.5    12  2.34 1         1
##  5 #F8766D 1             1.54  0.350    0.350  18.5    12  2.34 1         1
##  6 #F8766D 1             1.55  0.351    0.351  18.6    12  2.34 1         1
##  7 #F8766D 1             1.55  0.352    0.352  18.7    12  2.34 1         1
##  8 #F8766D 1             1.56  0.353    0.353  18.7    12  2.34 1         1
##  9 #F8766D 1             1.57  0.355    0.355  18.8    12  2.34 1         1
## 10 #F8766D 1             1.57  0.356    0.356  18.8    12  2.34 1         1
## # … with 3,062 more rows, and 11 more variables: violinwidth <dbl>,
## #   flipped_aes <lgl>, width <dbl>, ymin <mppd_dsc>, ymax <mppd_dsc>,
## #   xmax <dbl>, weight <dbl>, fill <chr>, size <dbl>, alpha <lgl>,
## #   linetype <chr>
## 
## [[2]]
…
